Example Use of MixedUpSlimSims • MixedUpSlimSims
…
And we also want to store some information about all the
individuals—basically the metadata and the pedigree, and the true
Q-values. That is all stored in the Q_values variable. And I also want
to keep the actual segments for each of the fish that we have the
genotypes for.

Q_values
#> # A tibble: 40,000 × 9
#>    ind_id anc_pop admix_fract ind_pop ind_time   sex ped_id ped_p1 ped_p2
#>     <dbl>   <dbl>       <dbl>   <int>    <dbl> <int>  <int>  <int>  <int>
#>  1      0       1     0             1        0     0  20000  19195  19946
#>  2      0       2     1             1        0     0  20000  19195  19946
#>  3      1       1     0             1        0     0  20001  19433  19577
#>  4      1       2     1             1        0     0  20001  19433  19577
#>  5      2       1     0.00533       1        0     0  20002  19425  19804
#>  6      2       2     0.995         1        0     0  20002  19425  19804
#>  7      3       1     0             1        0     0  20003  19195  19668
#>  8      3       2     1             1        0     0  20003  19195  19668
#>  9      4       1     0.0182        1        0     0  20004  19435  19912
#> 10      4       2     0.982         1        0     0  20004  19435  19912
#> # ℹ 39,990 more rows
…
