Place diagnostic marker alleles within individauls according to their ancestry haplotypes — place_diagnostic_markers • MixedUpSlimSims
…
# Then run the function:
place_diagnostic_markers(M, IS)
#> Running bedtools in /var/folders/ln/5brnn1wx0vj58fhlbbdjm8h40000gp/T//Rtmp1Hl8ZY/file13d4a5f18afa8
#> Rows: 10580 Columns: 5
#> ── Column specification ────────────────────────────────────────────────────────
#> Delimiter: "\t"
#> chr (1): chrom
#> dbl (4): diag_spp_idx, pos, ped_id, geno
#> 
#> ℹ Use `spec()` to retrieve the full column specification for this data.
#> ℹ Specify the column types or set `show_col_types = FALSE` to quiet this message.
#> # A tibble: 10,580 × 5
#>    diag_spp_idx chrom      pos ped_id  geno
#>           <dbl> <chr>    <dbl>  <dbl> <dbl>
#>  1            1 omy01  5604476  20055     2
#>  2            2 omy01  5604516  20055     0
#>  3            1 omy01  5604556  20055     2
#>  4            2 omy01  8362156  20055     0
#>  5            2 omy01  9582183  20055     0
#>  6            1 omy01 12303335  20055     2
#>  7            2 omy01 16142369  20055     0
#>  8            2 omy01 16142395  20055     0
#>  9            2 omy01 16206842  20055     0
#> 10            2 omy01 16206875  20055     0
#> # ℹ 10,570 more rows
…
